Lab 5
…
8. What are the demographics of the instructors in this study? Investigate the variables academic_degree, seniority, and sex and summarize your findings in ~3 complete sentences.

# code chunk for Q7
instructor_demo <- teacher_evals_clean |>
  distinct(teacher_id, .keep_all = TRUE) |>
  count(academic_degree, seniority, sex)

instructor_demo

# A tibble: 54 × 4
   academic_degree seniority sex        n
   <fct>           <fct>     <fct>  <int>
 1 dr              1         female     6
 2 dr              1         male       7
 3 dr              2         female    18
 4 dr              2         male      20
 5 dr              3         female     2
 6 dr              3         male       5
 7 dr              4         female     4
 8 dr              4         male      10
 9 dr              5         female     8
10 dr              5         male       1
# ℹ 44 more rows
…
# code chunk for Q9
average_ratings <- teacher_evals_clean |>
  group_by(teacher_id) |>
  summarize(avg_SET_score = mean(SET_score_avg, na.rm = TRUE), .groups = "drop")

highest_rating <- average_ratings |>
  filter(avg_SET_score == max(avg_SET_score, na.rm = TRUE))

 lowest_rating <- average_ratings |>
  filter(avg_SET_score == min(avg_SET_score, na.rm = TRUE))

highest_rating

# A tibble: 29 × 2
   teacher_id avg_SET_score
   <chr>              <dbl>
 1 36250                  5
 2 3682                   5
 3 37013                  5
 4 37023                  5
 5 50714                  5
 6 50740                  5
 7 50759                  5
 8 50790                  5
 9 54309                  5
10 54665                  5
# ℹ 19 more rows
…
